<?xml version="1.0" encoding="utf-8"?>
<!-- Generator: Adobe Illustrator 16.0.3, SVG Export Plug-In . SVG Version: 6.00 Build 0)  -->
<!DOCTYPE svg PUBLIC "-//W3C//DTD SVG 1.1//EN" "http://www.w3.org/Graphics/SVG/1.1/DTD/svg11.dtd">
<svg version="1.1" id="Layer_1" xmlns="http://www.w3.org/2000/svg" xmlns:xlink="http://www.w3.org/1999/xlink" x="0px" y="0px"
	 width="1400px" height="60px" viewBox="0 0 1400 60" enable-background="new 0 0 1400 60" xml:space="preserve">
<polygon fill="#F9AB32" points="1167,9.812 1400,46 1400,44 1167,7.812 64.5,33.125 0,5.75 0,7.75 64.5,35.125 "/>
<polygon fill="#FFFFFF" points="1167,9.812 64.5,35.125 0,7.75 0,46 0,60 1400,60 1400,46 "/>
<circle fill="#F9AB32" cx="1167.005" cy="9.063" r="2.996"/>
<circle fill="#F9AB32" cx="65.005" cy="34.063" r="2.996"/>
</svg>
